EESchema Schematic File Version 2
LIBS:power
LIBS:device
LIBS:transistors
LIBS:conn
LIBS:linear
LIBS:regul
LIBS:74xx
LIBS:cmos4000
LIBS:adc-dac
LIBS:memory
LIBS:xilinx
LIBS:microcontrollers
LIBS:dsp
LIBS:microchip
LIBS:analog_switches
LIBS:motorola
LIBS:texas
LIBS:intel
LIBS:audio
LIBS:interface
LIBS:digital-audio
LIBS:philips
LIBS:display
LIBS:cypress
LIBS:siliconi
LIBS:opto
LIBS:atmel
LIBS:contrib
LIBS:valves
LIBS:ms5611
LIBS:embedded-microcontrollers
LIBS:solarVario-cache
EELAYER 25 0
EELAYER END
$Descr A4 11693 8268
encoding utf-8
Sheet 1 1
Title ""
Date ""
Rev ""
Comp ""
Comment1 ""
Comment2 ""
Comment3 ""
Comment4 ""
$EndDescr
$Comp
L MS5611 U2
U 1 1 561495EE
P 2250 3900
F 0 "U2" H 2600 4400 60  0000 C CNN
F 1 "MS5611" V 2150 3950 60  0000 C CNN
F 2 "lcmeter:MS5611-01BA03" H 2250 3400 60  0000 C CNN
F 3 "" H 2250 3900 60  0000 C CNN
	1    2250 3900
	1    0    0    -1  
$EndComp
$Comp
L LD3985G U3
U 1 1 561496EB
P 4650 6200
F 0 "U3" H 4900 5950 60  0000 C CNN
F 1 "LP2985-25" H 4650 6400 60  0000 C CNN
F 2 "Housings_SOT-23_SOT-143_TSOT-6:SOT-23-5" V 4800 5900 28  0000 C CNN
F 3 "" H 4650 6200 60  0000 C CNN
	1    4650 6200
	1    0    0    -1  
$EndComp
$Comp
L SPEAKER SP1
U 1 1 561F3AF7
P 9500 3750
F 0 "SP1" H 9400 4000 50  0000 C CNN
F 1 "SPEAKER" H 9400 3500 50  0000 C CNN
F 2 "Pin_Headers:Pin_Header_Straight_1x02" V 9850 3750 60  0000 C CNN
F 3 "" H 9500 3750 60  0000 C CNN
	1    9500 3750
	1    0    0    -1  
$EndComp
$Comp
L C C3
U 1 1 561F3C2B
P 1700 2750
F 0 "C3" H 1725 2850 50  0000 L CNN
F 1 "10uF" H 1725 2650 50  0000 L CNN
F 2 "Capacitors_SMD:C_0805_HandSoldering" V 1550 2750 30  0000 C CNN
F 3 "" H 1700 2750 60  0000 C CNN
	1    1700 2750
	1    0    0    -1  
$EndComp
$Comp
L C C4
U 1 1 561F3CE8
P 2250 2750
F 0 "C4" H 2275 2850 50  0000 L CNN
F 1 "0.1uF" H 2275 2650 50  0000 L CNN
F 2 "Capacitors_SMD:C_0805_HandSoldering" V 2100 2750 30  0000 C CNN
F 3 "" H 2250 2750 60  0000 C CNN
	1    2250 2750
	1    0    0    -1  
$EndComp
$Comp
L C C8
U 1 1 561F3DD6
P 5200 6700
F 0 "C8" H 5225 6800 50  0000 L CNN
F 1 "10nF" H 5225 6600 50  0000 L CNN
F 2 "Capacitors_SMD:C_0805_HandSoldering" V 5400 6400 30  0000 C CNN
F 3 "" H 5200 6700 60  0000 C CNN
	1    5200 6700
	1    0    0    -1  
$EndComp
$Comp
L C C7
U 1 1 561F3E43
P 5900 6400
F 0 "C7" H 5925 6500 50  0000 L CNN
F 1 "2.2uF or 4.7uF" H 5925 6300 50  0000 L CNN
F 2 "Capacitors_SMD:C_0805_HandSoldering" V 6100 6100 30  0000 C CNN
F 3 "" H 5900 6400 60  0000 C CNN
	1    5900 6400
	1    0    0    -1  
$EndComp
$Comp
L C C6
U 1 1 561F3E94
P 3750 6450
F 0 "C6" H 3775 6550 50  0000 L CNN
F 1 "1uF" H 3775 6350 50  0000 L CNN
F 2 "Capacitors_SMD:C_0805_HandSoldering" V 3600 6250 30  0000 C CNN
F 3 "" H 3750 6450 60  0000 C CNN
	1    3750 6450
	1    0    0    -1  
$EndComp
$Comp
L CP C5
U 1 1 561F3EF5
P 2500 6450
F 0 "C5" H 2525 6550 50  0000 L CNN
F 1 "1F 5.5V" H 2525 6350 50  0000 L CNN
F 2 "lcmeter:ELKA_Supercap21mmX8mm_R5" V 2350 6300 30  0000 C CNN
F 3 "" H 2500 6450 60  0000 C CNN
	1    2500 6450
	1    0    0    -1  
$EndComp
Text Notes 600  5150 0    60   ~ 0
POWER SUPPLY
$Comp
L Battery SOLAR1
U 1 1 561F4F30
P 850 6450
F 0 "SOLAR1" H 950 6500 50  0000 L CNN
F 1 "6V/16mA" H 950 6400 50  0000 L CNN
F 2 "Pin_Headers:Pin_Header_Straight_1x02" V 650 6450 39  0000 C CNN
F 3 "" V 850 6490 60  0000 C CNN
	1    850  6450
	1    0    0    -1  
$EndComp
$Comp
L Battery SOLAR2
U 1 1 561F4FF3
P 1600 6450
F 0 "SOLAR2" H 1700 6500 50  0000 L CNN
F 1 "6V/16mA" H 1700 6400 50  0000 L CNN
F 2 "Pin_Headers:Pin_Header_Straight_1x02" V 1450 6450 39  0000 C CNN
F 3 "" V 1600 6490 60  0000 C CNN
	1    1600 6450
	1    0    0    -1  
$EndComp
$Comp
L GND #PWR1
U 1 1 561F5516
P 850 6800
F 0 "#PWR1" H 850 6550 50  0001 C CNN
F 1 "GND" H 850 6650 50  0000 C CNN
F 2 "" H 850 6800 60  0000 C CNN
F 3 "" H 850 6800 60  0000 C CNN
	1    850  6800
	1    0    0    -1  
$EndComp
$Comp
L GND #PWR3
U 1 1 561F5549
P 1600 6800
F 0 "#PWR3" H 1600 6550 50  0001 C CNN
F 1 "GND" H 1600 6650 50  0000 C CNN
F 2 "" H 1600 6800 60  0000 C CNN
F 3 "" H 1600 6800 60  0000 C CNN
	1    1600 6800
	1    0    0    -1  
$EndComp
$Comp
L D D1
U 1 1 561F5730
P 2050 6150
F 0 "D1" H 2050 6250 50  0000 C CNN
F 1 "1N4001" H 2050 6050 50  0000 C CNN
F 2 "lcmeter:AB2_DO-214AC_handSolder" H 2050 5950 39  0000 C CNN
F 3 "" H 2050 6150 60  0000 C CNN
	1    2050 6150
	-1   0    0    1   
$EndComp
$Comp
L GND #PWR7
U 1 1 561F5924
P 2500 6800
F 0 "#PWR7" H 2500 6550 50  0001 C CNN
F 1 "GND" H 2500 6650 50  0000 C CNN
F 2 "" H 2500 6800 60  0000 C CNN
F 3 "" H 2500 6800 60  0000 C CNN
	1    2500 6800
	1    0    0    -1  
$EndComp
$Comp
L SPST SW1
U 1 1 561F5A0E
P 3150 6150
F 0 "SW1" H 3150 6250 50  0000 C CNN
F 1 "SPST" H 3150 6050 50  0000 C CNN
F 2 "lcmeter:SPST_Side_mount" V 3150 6150 39  0000 C CNN
F 3 "" H 3150 6150 60  0000 C CNN
	1    3150 6150
	1    0    0    -1  
$EndComp
$Comp
L GND #PWR9
U 1 1 561F5EA5
P 3750 6800
F 0 "#PWR9" H 3750 6550 50  0001 C CNN
F 1 "GND" H 3750 6650 50  0000 C CNN
F 2 "" H 3750 6800 60  0000 C CNN
F 3 "" H 3750 6800 60  0000 C CNN
	1    3750 6800
	1    0    0    -1  
$EndComp
$Comp
L GND #PWR10
U 1 1 561F5ED7
P 4650 6800
F 0 "#PWR10" H 4650 6550 50  0001 C CNN
F 1 "GND" H 4650 6650 50  0000 C CNN
F 2 "" H 4650 6800 60  0000 C CNN
F 3 "" H 4650 6800 60  0000 C CNN
	1    4650 6800
	1    0    0    -1  
$EndComp
$Comp
L GND #PWR14
U 1 1 561F61E9
P 5900 6800
F 0 "#PWR14" H 5900 6550 50  0001 C CNN
F 1 "GND" H 5900 6650 50  0000 C CNN
F 2 "" H 5900 6800 60  0000 C CNN
F 3 "" H 5900 6800 60  0000 C CNN
	1    5900 6800
	1    0    0    -1  
$EndComp
$Comp
L INDUCTOR L1
U 1 1 561F6532
P 6450 6150
F 0 "L1" V 6400 6150 50  0000 C CNN
F 1 "BLM18AG601SN1D" V 6550 6150 50  0000 C CNN
F 2 "Resistors_SMD:R_0603_HandSoldering" H 6450 6150 39  0000 C CNN
F 3 "" H 6450 6150 60  0000 C CNN
	1    6450 6150
	0    -1   -1   0   
$EndComp
Text GLabel 5900 5950 1    60   Input ~ 0
VCCA
Text GLabel 7000 5950 1    60   Input ~ 0
VCC
Text GLabel 1250 2100 1    60   Input ~ 0
VCCA
Text Notes 1750 1900 0    60   ~ 0
PRESSURE SENSOR\n
Text GLabel 3750 5900 1    60   Input ~ 0
VBAT
Text GLabel 4450 1700 0    60   Input ~ 0
VBAT
Text GLabel 7250 1400 1    60   Input ~ 0
VCC
Text Notes 4100 1150 0    60   ~ 0
MSP430G2553IPW20
Text Notes 4400 5900 0    60   ~ 0
LP2985-25
Text Notes 4350 5750 0    60   ~ 0
MIC5205-2.5
$Comp
L MSP430G2553IPW20 U1
U 1 1 562DB23B
P 5950 2500
F 0 "U1" H 8400 2600 60  0000 C CNN
F 1 "MSP430G2553IPW20" H 7250 1200 60  0000 C CNN
F 2 "Housings_SSOP:TSSOP-20_4.4x6.5mm_Pitch0.65mm" H 7550 650 60  0000 C CNN
F 3 "" H 5950 2500 60  0000 C CNN
	1    5950 2500
	1    0    0    -1  
$EndComp
$Comp
L GND #PWR15
U 1 1 562DBD52
P 7250 4800
F 0 "#PWR15" H 7250 4550 50  0001 C CNN
F 1 "GND" H 7250 4650 50  0000 C CNN
F 2 "" H 7250 4800 60  0000 C CNN
F 3 "" H 7250 4800 60  0000 C CNN
	1    7250 4800
	1    0    0    -1  
$EndComp
Text GLabel 3100 3600 2    60   Input ~ 0
SCLK
Text GLabel 4700 3300 0    60   Input ~ 0
SCLK
Text GLabel 3100 3800 2    60   Input ~ 0
SDI
Text GLabel 4700 3500 0    60   Input ~ 0
SDI
Text GLabel 3100 4000 2    60   Input ~ 0
SDO
Text GLabel 3100 4200 2    60   Input ~ 0
CSB
Text GLabel 4700 3400 0    60   Input ~ 0
SDO
Text GLabel 4700 3200 0    60   Input ~ 0
CSB
Text Notes 5400 3300 0    47   ~ 0
UCB0CLK\n
Text Notes 5350 3500 0    47   ~ 0
UCB0SIMO
Text Notes 5350 3400 0    47   ~ 0
UCB0SOMI
$Comp
L R R1
U 1 1 562E02F5
P 4750 1700
F 0 "R1" V 4830 1700 50  0000 C CNN
F 1 "330K" V 4750 1700 50  0000 C CNN
F 2 "Resistors_SMD:R_0805_HandSoldering" H 4750 1850 30  0000 C CNN
F 3 "" H 4750 1700 30  0000 C CNN
	1    4750 1700
	0    1    1    0   
$EndComp
$Comp
L R R3
U 1 1 562E0358
P 5300 1700
F 0 "R3" V 5380 1700 50  0000 C CNN
F 1 "220K" V 5300 1700 50  0000 C CNN
F 2 "Resistors_SMD:R_0805_HandSoldering" H 5300 1850 30  0000 C CNN
F 3 "" H 5300 1700 30  0000 C CNN
	1    5300 1700
	0    1    1    0   
$EndComp
$Comp
L GND #PWR13
U 1 1 562E03C9
P 5750 1700
F 0 "#PWR13" H 5750 1450 50  0001 C CNN
F 1 "GND" H 5750 1550 50  0000 C CNN
F 2 "" H 5750 1700 60  0000 C CNN
F 3 "" H 5750 1700 60  0000 C CNN
	1    5750 1700
	0    -1   -1   0   
$EndComp
Text Notes 5500 2800 0    47   ~ 0
A0
$Comp
L R R2
U 1 1 562E0A91
P 4850 3700
F 0 "R2" V 4930 3700 50  0000 C CNN
F 1 "100K" V 4850 3700 50  0000 C CNN
F 2 "Resistors_SMD:R_0805_HandSoldering" V 4780 3700 30  0000 C CNN
F 3 "" H 4850 3700 30  0000 C CNN
	1    4850 3700
	0    1    1    0   
$EndComp
$Comp
L C C9
U 1 1 562E0AEC
P 5250 3950
F 0 "C9" H 5275 4050 50  0000 L CNN
F 1 "0.1uF" H 5275 3850 50  0000 L CNN
F 2 "Capacitors_SMD:C_0805_HandSoldering" H 5288 3800 30  0000 C CNN
F 3 "" H 5250 3950 60  0000 C CNN
	1    5250 3950
	1    0    0    -1  
$EndComp
$Comp
L GND #PWR12
U 1 1 562E0C37
P 5250 4350
F 0 "#PWR12" H 5250 4100 50  0001 C CNN
F 1 "GND" H 5250 4200 50  0000 C CNN
F 2 "" H 5250 4350 60  0000 C CNN
F 3 "" H 5250 4350 60  0000 C CNN
	1    5250 4350
	1    0    0    -1  
$EndComp
Text GLabel 4500 3700 0    60   Input ~ 0
VCC
$Comp
L C C1
U 1 1 562E115B
P 7600 2050
F 0 "C1" H 7625 2150 50  0000 L CNN
F 1 "0.1uF" H 7625 1950 50  0000 L CNN
F 2 "Capacitors_SMD:C_0805_HandSoldering" V 7450 1900 30  0000 C CNN
F 3 "" H 7600 2050 60  0000 C CNN
	1    7600 2050
	0    -1   -1   0   
$EndComp
$Comp
L GND #PWR17
U 1 1 562E120D
P 8050 2050
F 0 "#PWR17" H 8050 1800 50  0001 C CNN
F 1 "GND" H 8050 1900 50  0000 C CNN
F 2 "" H 8050 2050 60  0000 C CNN
F 3 "" H 8050 2050 60  0000 C CNN
	1    8050 2050
	0    -1   -1   0   
$EndComp
$Comp
L GND #PWR11
U 1 1 5638102F
P 5200 6850
F 0 "#PWR11" H 5200 6600 50  0001 C CNN
F 1 "GND" H 5200 6700 50  0000 C CNN
F 2 "" H 5200 6850 60  0000 C CNN
F 3 "" H 5200 6850 60  0000 C CNN
	1    5200 6850
	1    0    0    -1  
$EndComp
$Comp
L GNDA #PWR6
U 1 1 56386C74
P 2250 5350
F 0 "#PWR6" H 2250 5100 50  0001 C CNN
F 1 "GNDA" H 2250 5200 50  0000 C CNN
F 2 "" H 2250 5350 60  0000 C CNN
F 3 "" H 2250 5350 60  0000 C CNN
	1    2250 5350
	0    1    1    0   
$EndComp
$Comp
L GNDA #PWR2
U 1 1 56386D05
P 1350 4000
F 0 "#PWR2" H 1350 3750 50  0001 C CNN
F 1 "GNDA" H 1350 3850 50  0000 C CNN
F 2 "" H 1350 4000 60  0000 C CNN
F 3 "" H 1350 4000 60  0000 C CNN
	1    1350 4000
	0    1    1    0   
$EndComp
$Comp
L GND #PWR8
U 1 1 56386E20
P 3100 5350
F 0 "#PWR8" H 3100 5100 50  0001 C CNN
F 1 "GND" H 3100 5200 50  0000 C CNN
F 2 "" H 3100 5350 60  0000 C CNN
F 3 "" H 3100 5350 60  0000 C CNN
	1    3100 5350
	0    -1   -1   0   
$EndComp
$Comp
L INDUCTOR L2
U 1 1 56386E6A
P 2700 5350
F 0 "L2" V 2650 5350 50  0000 C CNN
F 1 "BLM18AG601SN1D" V 2800 5350 50  0000 C CNN
F 2 "Resistors_SMD:R_0603_HandSoldering" V 2900 5350 39  0000 C CNN
F 3 "" H 2700 5350 60  0000 C CNN
	1    2700 5350
	0    -1   -1   0   
$EndComp
$Comp
L C C2
U 1 1 563895D0
P 7600 1650
F 0 "C2" H 7625 1750 50  0000 L CNN
F 1 "10uF" H 7625 1550 50  0000 L CNN
F 2 "Capacitors_SMD:C_0805_HandSoldering" V 7500 1500 30  0000 C CNN
F 3 "" H 7600 1650 60  0000 C CNN
	1    7600 1650
	0    -1   -1   0   
$EndComp
$Comp
L GND #PWR16
U 1 1 563896FC
P 8050 1650
F 0 "#PWR16" H 8050 1400 50  0001 C CNN
F 1 "GND" H 8050 1500 50  0000 C CNN
F 2 "" H 8050 1650 60  0000 C CNN
F 3 "" H 8050 1650 60  0000 C CNN
	1    8050 1650
	0    -1   -1   0   
$EndComp
Text Notes 4300 5600 0    60   ~ 0
MAX8510-2.5
$Comp
L GNDA #PWR4
U 1 1 5638F5DD
P 1700 3050
F 0 "#PWR4" H 1700 2800 50  0001 C CNN
F 1 "GNDA" H 1700 2900 50  0000 C CNN
F 2 "" H 1700 3050 60  0000 C CNN
F 3 "" H 1700 3050 60  0000 C CNN
	1    1700 3050
	1    0    0    -1  
$EndComp
$Comp
L GNDA #PWR5
U 1 1 5638F62D
P 2250 3050
F 0 "#PWR5" H 2250 2800 50  0001 C CNN
F 1 "GNDA" H 2250 2900 50  0000 C CNN
F 2 "" H 2250 3050 60  0000 C CNN
F 3 "" H 2250 3050 60  0000 C CNN
	1    2250 3050
	1    0    0    -1  
$EndComp
Text GLabel 9400 5650 0    60   Input ~ 0
SBWTCK
$Comp
L CONN_01X06 P2
U 1 1 56384E21
P 9600 5700
F 0 "P2" H 9600 5950 50  0000 C CNN
F 1 "Programming" V 9700 5700 50  0000 C CNN
F 2 "Pin_Headers:Pin_Header_Straight_1x06" H 9600 5300 60  0000 C CNN
F 3 "" H 9600 5700 60  0000 C CNN
	1    9600 5700
	1    0    0    -1  
$EndComp
Text GLabel 9400 5550 0    60   Input ~ 0
VCC
$Comp
L GND #PWR20
U 1 1 56384F3A
P 9400 5450
F 0 "#PWR20" H 9400 5200 50  0001 C CNN
F 1 "GND" H 9400 5300 50  0000 C CNN
F 2 "" H 9400 5450 60  0000 C CNN
F 3 "" H 9400 5450 60  0000 C CNN
	1    9400 5450
	0    1    1    0   
$EndComp
Text GLabel 9400 5750 0    60   Input ~ 0
SBWTDIO
Text GLabel 9400 5850 0    60   Input ~ 0
UCxxTXD
Text GLabel 9400 5950 0    60   Input ~ 0
UCxxRXD
Text GLabel 5500 4350 3    60   Input ~ 0
SBWTCK
Text GLabel 5600 4350 3    60   Input ~ 0
SBWTDIO
Text Notes 12050 3500 3    47   ~ 0
https://www.anaren.com/air-wiki-zigbee/Using_LaunchPad_as_a_MSP-FET430UIF_JTAG_Programmer
Text GLabel 5050 3000 0    60   Input ~ 0
UCxxTXD
Text GLabel 5050 2900 0    60   Input ~ 0
UCxxRXD
Text Notes 5400 2900 0    47   ~ 0
UCA0RXD
Text Notes 5400 3000 0    47   ~ 0
UCA0TXD
Text Notes 5400 3200 0    47   ~ 0
UCB0STE\n
Wire Wire Line
	5650 3400 4700 3400
Wire Wire Line
	5650 3500 4700 3500
Wire Wire Line
	5650 3300 4700 3300
Connection ~ 5600 3700
Wire Wire Line
	5600 3700 5600 4350
Wire Wire Line
	5500 3800 5500 4350
Wire Wire Line
	5650 3800 5500 3800
Wire Wire Line
	8050 1650 7750 1650
Connection ~ 7250 1650
Wire Wire Line
	7450 1650 7250 1650
Wire Wire Line
	3000 5350 3100 5350
Wire Wire Line
	2250 5350 2400 5350
Connection ~ 7250 2050
Wire Wire Line
	7250 2050 7450 2050
Wire Wire Line
	8050 2050 7750 2050
Wire Wire Line
	4700 3700 4500 3700
Connection ~ 5250 3700
Wire Wire Line
	5250 4100 5250 4350
Wire Wire Line
	5250 3700 5250 3800
Wire Wire Line
	5000 3700 5650 3700
Connection ~ 5050 1700
Wire Wire Line
	5050 2800 5050 1700
Wire Wire Line
	5050 2800 5650 2800
Wire Wire Line
	5450 1700 5750 1700
Wire Wire Line
	4900 1700 5150 1700
Wire Wire Line
	4450 1700 4600 1700
Wire Wire Line
	9000 3850 9200 3850
Wire Wire Line
	9000 3750 9000 3850
Wire Wire Line
	8750 3750 9000 3750
Wire Wire Line
	8750 3650 9200 3650
Wire Wire Line
	2800 4200 3100 4200
Wire Wire Line
	3100 4000 2800 4000
Wire Wire Line
	2800 3800 3100 3800
Wire Wire Line
	3100 3600 2800 3600
Connection ~ 1600 4000
Wire Wire Line
	1600 3800 1600 4000
Wire Wire Line
	1700 3800 1600 3800
Wire Wire Line
	7250 4550 7250 4800
Wire Wire Line
	7250 1400 7250 2200
Wire Wire Line
	1350 4000 1700 4000
Connection ~ 1250 2500
Wire Wire Line
	1250 3600 1700 3600
Wire Wire Line
	2250 2900 2250 3050
Wire Wire Line
	1700 2900 1700 3050
Connection ~ 1700 2500
Wire Wire Line
	1700 2600 1700 2500
Wire Wire Line
	1250 2100 1250 3600
Wire Wire Line
	1250 2500 2250 2500
Wire Wire Line
	2250 2500 2250 2600
Wire Wire Line
	7000 6150 7000 5950
Wire Wire Line
	6750 6150 7000 6150
Connection ~ 5900 6150
Wire Wire Line
	5900 6550 5900 6800
Wire Wire Line
	5900 5950 5900 6250
Wire Wire Line
	5200 6250 5200 6550
Wire Wire Line
	5150 6250 5200 6250
Wire Wire Line
	5150 6150 6150 6150
Connection ~ 3950 6150
Wire Wire Line
	3950 6150 3950 6250
Wire Wire Line
	3950 6250 4150 6250
Connection ~ 3750 6150
Wire Wire Line
	4650 6800 4650 6600
Wire Wire Line
	3750 6600 3750 6800
Wire Wire Line
	3750 5900 3750 6300
Wire Wire Line
	3650 6150 4150 6150
Connection ~ 2500 6150
Wire Wire Line
	2500 6150 2500 6300
Wire Wire Line
	2200 6150 2650 6150
Wire Wire Line
	2500 6800 2500 6600
Connection ~ 1600 6150
Wire Wire Line
	1600 6150 1600 6300
Wire Wire Line
	850  6150 1900 6150
Wire Wire Line
	850  6300 850  6150
Wire Wire Line
	1600 6800 1600 6600
Wire Wire Line
	850  6800 850  6600
Wire Wire Line
	5650 3000 5050 3000
Wire Wire Line
	5050 2900 5650 2900
Wire Wire Line
	5650 3200 4700 3200
Wire Notes Line
	500  5000 6950 5000
Wire Notes Line
	6950 5000 6950 7750
Wire Notes Line
	6950 7750 500  7750
Wire Notes Line
	500  7750 500  5000
Wire Notes Line
	950  4600 3600 4600
Wire Notes Line
	3600 4600 3600 1700
Wire Notes Line
	3600 1700 950  1700
Wire Notes Line
	950  1700 950  4600
Wire Notes Line
	4000 1150 4000 4950
Wire Notes Line
	4000 4950 10450 4950
Wire Notes Line
	10450 4950 10450 1000
Wire Notes Line
	10450 1000 4000 1000
Wire Notes Line
	4000 1000 4000 1200
Wire Notes Line
	8150 5000 8150 6450
Wire Notes Line
	8150 6450 10900 6450
Wire Notes Line
	10900 6450 10900 5000
Wire Notes Line
	10900 5000 8150 5000
Text Notes 8250 5250 0    60   ~ 0
PROGRAMMING
Text Notes 7550 7500 0    60   ~ 0
SUNNY VARIO V1.0 NOV 2015
$EndSCHEMATC
